module gitlab.com/bailinhe/k8s-workspace

go 1.13

require (
	github.com/go-logr/logr v0.1.0
	github.com/onsi/ginkgo v1.12.1
	github.com/onsi/gomega v1.10.1
	github.com/sethvargo/go-password v0.2.0
	k8s.io/api v0.18.6
	k8s.io/apimachinery v0.18.6
	k8s.io/client-go v0.18.6
	sigs.k8s.io/controller-runtime v0.6.3
)
